##GridPane_Prometheus_vHost_Begin##
#HTTP#
## Do not edit directly.
## All changes will be lost.
## Please use a location specific
## include to customise your config

include /var/www/reillysdaughter.net/nginx/*-http-context.conf;
server {
    listen 80;
    listen [::]:80;

    server_name reillysdaughter.net www.reillysdaughter.net;

    access_log /var/log/nginx/reillysdaughter.net.access.log we_log;
    error_log /var/log/nginx/reillysdaughter.net.error.log;

    root /var/www/reillysdaughter.net/htdocs;

    index index.php index.html index.htm;

    #include /etc/nginx/common/acl.conf;
    #include /etc/nginx/common/7g.conf;
    #include /etc/nginx/common/6g.conf;
    include /var/www/reillysdaughter.net/nginx/*reillysdaughter.net-sockfile.conf;
    include /etc/nginx/common/reillysdaughter.net-compression.conf;
    include /var/www/reillysdaughter.net/nginx/*-realip-context.conf;
    include /etc/nginx/common/gridpane-realip.conf;
    #include /var/www/reillysdaughter.net/nginx/reillysdaughter.net-headers-csp.conf;
    include /etc/nginx/common/headers-http.conf;
    include /etc/nginx/common/headers-html.conf;
    include /var/www/reillysdaughter.net/nginx/*-main-reillysdaughter.net-context.conf;
    include /var/www/reillysdaughter.net/nginx/*-main-context.conf;
    include /etc/nginx/extra.d/*main-context.conf;
    include /etc/nginx/common/reillysdaughter.net-sitemap.conf;
    include /etc/nginx/common/reillysdaughter.net-static.conf;
    include /etc/nginx/common/reillysdaughter.net-wpcommon.conf;
    include /etc/nginx/common/reillysdaughter.net-wp-redis.conf;
    #include /etc/nginx/common/wpsubdir.conf;
    include /etc/nginx/common/security.conf;
}
##GridPane_Prometheus_vHost_End##
